^C:\USERS\FLARRADET\DOCUMENTS\VISUAL STUDIO 2015\PROJECTS\CONSOLEAPPLICATION1\CONSOLEAPPLICATION1\RELEASE\STDAFX.OBJ|C:\USERS\FLARRADET\DOCUMENTS\VISUAL STUDIO 2015\PROJECTS\CONSOLEAPPLICATION1\CONSOLEAPPLICATION1\RELEASE\TESTCLIENT.OBJ|C:\USERS\FLARRADET\DOCUMENTS\VISUAL STUDIO 2015\PROJECTS\CONSOLEAPPLICATION1\CONSOLEAPPLICATION1\RELEASE\TESTCLIENT.RES|C:\USERS\FLARRADET\DOCUMENTS\VISUAL STUDIO 2015\PROJECTS\CONSOLEAPPLICATION1\CONSOLEAPPLICATION1\RELEASE\TESTCLIENTDLG.OBJ
C:\USERS\FLARRADET\DOCUMENTS\VISUAL STUDIO 2015\PROJECTS\CONSOLEAPPLICATION1\RELEASE\CONSOLEAPPLICATION1.EXE
C:\USERS\FLARRADET\DOCUMENTS\VISUAL STUDIO 2015\PROJECTS\CONSOLEAPPLICATION1\RELEASE\CONSOLEAPPLICATION1.IPDB
C:\USERS\FLARRADET\DOCUMENTS\VISUAL STUDIO 2015\PROJECTS\CONSOLEAPPLICATION1\RELEASE\CONSOLEAPPLICATION1.IOBJ
C:\USERS\FLARRADET\DOCUMENTS\VISUAL STUDIO 2015\PROJECTS\CONSOLEAPPLICATION1\RELEASE\CONSOLEAPPLICATION1.PDB
^C:\USERS\FLARRADET\DOCUMENTS\PHD\EMBC2017\BIOGRAPH_COMMUNICATION\CONSOLEAPPLICATION1\CONSOLEAPPLICATION1\RELEASE\STDAFX.OBJ|C:\USERS\FLARRADET\DOCUMENTS\PHD\EMBC2017\BIOGRAPH_COMMUNICATION\CONSOLEAPPLICATION1\CONSOLEAPPLICATION1\RELEASE\TESTCLIENT.OBJ|C:\USERS\FLARRADET\DOCUMENTS\PHD\EMBC2017\BIOGRAPH_COMMUNICATION\CONSOLEAPPLICATION1\CONSOLEAPPLICATION1\RELEASE\TESTCLIENT.RES|C:\USERS\FLARRADET\DOCUMENTS\PHD\EMBC2017\BIOGRAPH_COMMUNICATION\CONSOLEAPPLICATION1\CONSOLEAPPLICATION1\RELEASE\TESTCLIENTDLG.OBJ
C:\USERS\FLARRADET\DOCUMENTS\PHD\EMBC2017\BIOGRAPH_COMMUNICATION\CONSOLEAPPLICATION1\RELEASE\CONSOLEAPPLICATION1.EXE
C:\USERS\FLARRADET\DOCUMENTS\PHD\EMBC2017\BIOGRAPH_COMMUNICATION\CONSOLEAPPLICATION1\RELEASE\CONSOLEAPPLICATION1.IPDB
C:\USERS\FLARRADET\DOCUMENTS\PHD\EMBC2017\BIOGRAPH_COMMUNICATION\CONSOLEAPPLICATION1\RELEASE\CONSOLEAPPLICATION1.IOBJ
C:\USERS\FLARRADET\DOCUMENTS\PHD\EMBC2017\BIOGRAPH_COMMUNICATION\CONSOLEAPPLICATION1\RELEASE\CONSOLEAPPLICATION1.PDB
^C:\USERS\FLARRADET\DOCUMENTS\PHD\EMBC2017\BIOGRAPH_COMMUNICATION\CONSOLEAPPLICATION1-CONDITIONS\CONSOLEAPPLICATION1\RELEASE\STDAFX.OBJ|C:\USERS\FLARRADET\DOCUMENTS\PHD\EMBC2017\BIOGRAPH_COMMUNICATION\CONSOLEAPPLICATION1-CONDITIONS\CONSOLEAPPLICATION1\RELEASE\TESTCLIENT.OBJ|C:\USERS\FLARRADET\DOCUMENTS\PHD\EMBC2017\BIOGRAPH_COMMUNICATION\CONSOLEAPPLICATION1-CONDITIONS\CONSOLEAPPLICATION1\RELEASE\TESTCLIENT.RES|C:\USERS\FLARRADET\DOCUMENTS\PHD\EMBC2017\BIOGRAPH_COMMUNICATION\CONSOLEAPPLICATION1-CONDITIONS\CONSOLEAPPLICATION1\RELEASE\TESTCLIENTDLG.OBJ
C:\USERS\FLARRADET\DOCUMENTS\PHD\EMBC2017\BIOGRAPH_COMMUNICATION\CONSOLEAPPLICATION1-CONDITIONS\RELEASE\CONSOLEAPPLICATION1.EXE
C:\USERS\FLARRADET\DOCUMENTS\PHD\EMBC2017\BIOGRAPH_COMMUNICATION\CONSOLEAPPLICATION1-CONDITIONS\RELEASE\CONSOLEAPPLICATION1.IPDB
C:\USERS\FLARRADET\DOCUMENTS\PHD\EMBC2017\BIOGRAPH_COMMUNICATION\CONSOLEAPPLICATION1-CONDITIONS\RELEASE\CONSOLEAPPLICATION1.IOBJ
C:\USERS\FLARRADET\DOCUMENTS\PHD\EMBC2017\BIOGRAPH_COMMUNICATION\CONSOLEAPPLICATION1-CONDITIONS\RELEASE\CONSOLEAPPLICATION1.PDB
