^C:\USERS\FLARRADET\DOCUMENTS\VISUAL STUDIO 2015\PROJECTS\CONSOLEAPPLICATION1\CONSOLEAPPLICATION1\STDAFX.CPP
/c /Zi /nologo /W3 /WX- /sdl /O2 /Oi /Oy- /GL /D WIN32 /D NDEBUG /D _WINDOWS /D _UNICODE /D UNICODE /D _AFXDLL /Gm- /EHsc /MD /GS /Gy /fp:precise /Zc:wchar_t /Zc:forScope /Zc:inline /Yc"stdafx.h" /Fp"RELEASE\CONSOLEAPPLICATION1.PCH" /Fo"RELEASE\\" /Fd"RELEASE\VC140.PDB" /Gd /TP /analyze- C:\USERS\FLARRADET\DOCUMENTS\VISUAL STUDIO 2015\PROJECTS\CONSOLEAPPLICATION1\CONSOLEAPPLICATION1\STDAFX.CPP
^C:\USERS\FLARRADET\DOCUMENTS\VISUAL STUDIO 2015\PROJECTS\CONSOLEAPPLICATION1\CONSOLEAPPLICATION1\TESTCLIENT.CPP
/c /Zi /nologo /W3 /WX- /sdl /O2 /Oi /Oy- /GL /D WIN32 /D NDEBUG /D _WINDOWS /D _UNICODE /D UNICODE /D _AFXDLL /Gm- /EHsc /MD /GS /Gy /fp:precise /Zc:wchar_t /Zc:forScope /Zc:inline /Yu"stdafx.h" /Fp"RELEASE\CONSOLEAPPLICATION1.PCH" /Fo"RELEASE\\" /Fd"RELEASE\VC140.PDB" /Gd /TP /analyze- C:\USERS\FLARRADET\DOCUMENTS\VISUAL STUDIO 2015\PROJECTS\CONSOLEAPPLICATION1\CONSOLEAPPLICATION1\TESTCLIENT.CPP
^C:\USERS\FLARRADET\DOCUMENTS\VISUAL STUDIO 2015\PROJECTS\CONSOLEAPPLICATION1\CONSOLEAPPLICATION1\TESTCLIENTDLG.CPP
/c /Zi /nologo /W3 /WX- /sdl /O2 /Oi /Oy- /GL /D WIN32 /D NDEBUG /D _WINDOWS /D _UNICODE /D UNICODE /D _AFXDLL /Gm- /EHsc /MD /GS /Gy /fp:precise /Zc:wchar_t /Zc:forScope /Zc:inline /Yu"stdafx.h" /Fp"RELEASE\CONSOLEAPPLICATION1.PCH" /Fo"RELEASE\\" /Fd"RELEASE\VC140.PDB" /Gd /TP /analyze- C:\USERS\FLARRADET\DOCUMENTS\VISUAL STUDIO 2015\PROJECTS\CONSOLEAPPLICATION1\CONSOLEAPPLICATION1\TESTCLIENTDLG.CPP
^C:\USERS\FLARRADET\DOCUMENTS\PHD\EMBC2017\BIOGRAPH_COMMUNICATION\CONSOLEAPPLICATION1\CONSOLEAPPLICATION1\STDAFX.CPP
/c /Zi /nologo /W3 /WX- /sdl /O2 /Oi /Oy- /GL /D WIN32 /D NDEBUG /D _WINDOWS /D _UNICODE /D UNICODE /D _AFXDLL /Gm- /EHsc /MD /GS /Gy /fp:precise /Zc:wchar_t /Zc:forScope /Zc:inline /Yc"stdafx.h" /Fp"RELEASE\CONSOLEAPPLICATION1.PCH" /Fo"RELEASE\\" /Fd"RELEASE\VC140.PDB" /Gd /TP /analyze- C:\USERS\FLARRADET\DOCUMENTS\PHD\EMBC2017\BIOGRAPH_COMMUNICATION\CONSOLEAPPLICATION1\CONSOLEAPPLICATION1\STDAFX.CPP
^C:\USERS\FLARRADET\DOCUMENTS\PHD\EMBC2017\BIOGRAPH_COMMUNICATION\CONSOLEAPPLICATION1\CONSOLEAPPLICATION1\TESTCLIENT.CPP
/c /Zi /nologo /W3 /WX- /sdl /O2 /Oi /Oy- /GL /D WIN32 /D NDEBUG /D _WINDOWS /D _UNICODE /D UNICODE /D _AFXDLL /Gm- /EHsc /MD /GS /Gy /fp:precise /Zc:wchar_t /Zc:forScope /Zc:inline /Yu"stdafx.h" /Fp"RELEASE\CONSOLEAPPLICATION1.PCH" /Fo"RELEASE\\" /Fd"RELEASE\VC140.PDB" /Gd /TP /analyze- C:\USERS\FLARRADET\DOCUMENTS\PHD\EMBC2017\BIOGRAPH_COMMUNICATION\CONSOLEAPPLICATION1\CONSOLEAPPLICATION1\TESTCLIENT.CPP
^C:\USERS\FLARRADET\DOCUMENTS\PHD\EMBC2017\BIOGRAPH_COMMUNICATION\CONSOLEAPPLICATION1\CONSOLEAPPLICATION1\TESTCLIENTDLG.CPP
/c /Zi /nologo /W3 /WX- /sdl /O2 /Oi /Oy- /GL /D WIN32 /D NDEBUG /D _WINDOWS /D _UNICODE /D UNICODE /D _AFXDLL /Gm- /EHsc /MD /GS /Gy /fp:precise /Zc:wchar_t /Zc:forScope /Zc:inline /Yu"stdafx.h" /Fp"RELEASE\CONSOLEAPPLICATION1.PCH" /Fo"RELEASE\\" /Fd"RELEASE\VC140.PDB" /Gd /TP /analyze- C:\USERS\FLARRADET\DOCUMENTS\PHD\EMBC2017\BIOGRAPH_COMMUNICATION\CONSOLEAPPLICATION1\CONSOLEAPPLICATION1\TESTCLIENTDLG.CPP
